…
``` r
# We can now calculate the Euclidean distance between each weather station's mean and their states' median statistics.
met_avg_by_USAFID <- met_avg_by_USAFID |>
  mutate(d = (temp.x - temp.y)^2 + (wind.sp.x - wind.sp.y)^2 + (atm.press.x - atm.press.y)^2) 

met_avg_by_USAFID |>
  group_by(STATE) |>
  slice(which.min(d))
```

    ## # A tibble: 46 × 14
    ## # Groups:   STATE [46]
    ##    STATE USAFID temp.x wind.…¹ atm.p…² lat.x  lon.x CTRY  temp.y wind.…³ atm.p…⁴
    ##    <chr>  <int>  <dbl>   <dbl>   <dbl> <dbl>  <dbl> <chr>  <dbl>   <dbl>   <dbl>
    ##  1 AL    722285   25.3    1.45   1016.  34.0  -86.1 US      26.2    1.57   1016.
    ##  2 AR    723407   25.9    2.21   1015.  35.8  -90.6 US      26.2    1.84   1015.
    ##  3 AZ    722745   30.3    3.31   1010.  32.2 -111.  US      28.8    2.98   1011.
    ##  4 CA    722977   22.3    2.36   1013.  33.7 -118.  US      22.4    2.61   1013.
    ##  5 CO    724676   18.9    3.22   1014.  39.2 -107.  US      19.5    3.08   1014.
    ##  6 CT    725087   22.6    2.13   1015.  41.7  -72.7 US      22.3    2.19   1015.
    ##  7 DE    724180   24.6    2.75   1015.  39.7  -75.6 US      24.6    2.76   1015.
    ##  8 FL    722210   27.7    2.53   1015.  30.5  -86.5 US      27.5    2.50   1015.
    ##  9 GA    723160   26.6    1.68   1015.  31.5  -82.5 US      26.5    1.51   1015.
    ## 10 IA    725480   21.4    2.76   1015.  42.6  -92.4 US      21.3    2.57   1015.
    ## # … with 36 more rows, 3 more variables: lat.y <dbl>, lon.y <dbl>, d <dbl>, and
    ## #   abbreviated variable names ¹​wind.sp.x, ²​atm.press.x, ³​wind.sp.y,
    ## #   ⁴​atm.press.y
…
